Point(1) = {0, 0, 0, 1.0};
Point(2) = {0.15, 0, 0, 1.0};
Point(3) = {0.3, 0, 0, 1.0};
Point(4) = {0.3, 0.3, 0, 1.0};
Point(5) = {0.15, 0.3, 0, 1.0};
Point(6) = {0, 0.3, 0, 1.0};
Point(7) = {0, 0.15, 0, 1.0};
Line(1) = {1, 3};
Line(2) = {3, 4};
Line(3) = {4, 6};
Line(4) = {6, 1};
Line Loop(5) = {4, 1, 2, 3};
Plane Surface(6) = {5};
Physical Line(7) = {4, 1, 2, 3};
Physical Surface(8) = {6};
Transfinite Surface {6} = {6, 1, 3, 4};
Transfinite Line {4, 1, 2, 3} = 3 Using Progression 1;
