Point(1) = {0, 0, 0, 1.0};
Point(2) = {1, 0, 0, 1.0};
Point(3) = {1, 1, 0, 1.0};
Point(4) = {0, 1, 0, 1.0};
Point(5) = {0.5, 0, 0, 1.0};
Point(6) = {0.5, 1, 0, 1.0};
Point(7) = {0, 0.5, 0, 1};
Point(8) = {1, 0.5, 0, 1};
Line(1) = {1, 2};
Line(2) = {2, 3};
Line(3) = {3, 4};
Line(4) = {4, 1};
Line Loop(5) = {3, 4, 1, 2};
Plane Surface(6) = {5};
Transfinite Line {4, 3, 1, 2} = 33 Using Bump 0.25;
Transfinite Surface {6} = {1, 2, 3, 4};

n = 32; // number of intervals

//layer[0] = 0.0;

layer[0] = 0.01371155775371185;
layer[1] = 0.02742311550742391;
layer[2] = 0.04536121612015752;
layer[3] = 0.06329931673289019;
layer[4] = 0.08628792530297971;
layer[5] = 0.1092765338730692;
layer[6] = 0.1379716022972919;
layer[7] = 0.1666666707214947;
layer[8] = 0.2013296841983425;
layer[9] = 0.2359926976751903;
layer[10] = 0.2762446436939116;
layer[11] = 0.3164965897126329;
layer[12] = 0.3611513417241034;
layer[13] = 0.405806093735574;
layer[14] = 0.4529030468668135;
layer[15] = 0.499999999998053;
layer[16] = 0.547096953129602;
layer[17] = 0.5941939062611511;
layer[18] = 0.6388486582729842;
layer[19] = 0.6835034102848173;
layer[20] = 0.723755356303901;
layer[21] = 0.7640073023229845;
layer[22] = 0.7986703158001519;
layer[23] = 0.8333333292773193;
layer[24] = 0.8620283977017755;
layer[25] = 0.8907234661262318;
layer[26] = 0.9137120746964795;
layer[27] = 0.9367006832667274;
layer[28] = 0.9546387838795799;
layer[29] = 0.9725768844924325;
layer[30] = 0.9862884422462163;
layer[31] = 1.0;

one[0] = 1;
For i In {1:n-1}
  one[i] = 1;
EndFor

Extrude {0,0,1} {
  Surface{6}; Layers{one[], layer[]}; Recombine;
}

//Extrude {0, 0, 1} {
//  Surface{6}; Layers{2}
//}
Physical Surface(20) = {15};
Physical Surface(21) = {19, 28, 27, 23, 6};
Physical Volume(30) = {1};
