Point(1) = {-2.5, -2.5, 0.0, 1.0};
Point(2) = {4.5, -2.5, 0.0, 1.0};
Point(3) = {4.5, 2.5, 0.0, 1.0};
Point(4) = {-2.5, 2.5, 0.0, 1.0};
Point(5) = {0.0, 0.0, 0.0, 0.2};
Point(6) = {0.86602540378443871, -0.86602540378443871, 0.0, 0.2};
Point(7) = {0.86602540378443871, 0.86602540378443871, 0.0, 0.2};
Point(8) = {0.0, -2.5, 0.0, 1.0};
Point(9) = {0.0, 2.5, 0.0, 1.0};

Line(1) = {1, 8};
Line(2) = {8, 5};
Line(3) = {5, 9};
Line(4) = {9, 4};
Line(5) = {4, 1};
Line(6) = {8, 2};
Line(7) = {2, 3};
Line(8) = {3, 9};
Line(9) = {5, 6};
Line(10) = {6, 7};
Line(11) = {7, 5};
Line Loop(12) = {3, 4, 5, 1, 2};
Plane Surface(13) = {12};
Line Loop(14) = {8, -3, -2, 6, 7};
Line Loop(15) = {9, 10, 11};
Plane Surface(16) = {14, 15};
Physical Line(17) = {5};
Physical Line(18) = {7};
Physical Line(19) = {1, 6, 9, 10, 11, 8, 4};
Physical Surface(20) = {13, 16};
