Point(1) = {0, 0, 0, 1.0};
Point(2) = {8, 0, 0, 1.0};
Point(3) = {8, 0.8, 0, 1.0};
Point(4) = {0, 2, 0, 1.0};
Point(5) = {2, 0.7, 0, 1.0};
Point(6) = {4, 0.2, 0, 1.0};
Point(7) = {7, 0.6, 0, 1.0};
Point(8) = {6, 0.7, 0, 1.0};
Line(1) = {1, 2};
Line(2) = {2, 3};
Line(3) = {3, 4};
Line(4) = {4, 1};
Line(5) = {5, 6};
Line(6) = {6, 7};
Line(7) = {7, 8};
Line(8) = {8, 5};
Line Loop(9) = {3, 4, 1, 2};
Line Loop(10) = {8, 5, 6, 7};
Plane Surface(11) = {9, 10};
Physical Line(12) = {4};
Physical Line(13) = {2};
Physical Line(14) = {1, 3, 8, 5, 6, 7};
Physical Surface(15) = {11};
