Point(1)={1.005, 0.00, 0.00, 0.010};
Point(2) = {1.0000000, 0.0012600, 0.00, 0.005};
Point(3) = {0.9994161, 0.0013419, 0.00, 0.005};
Point(4) = {0.9976658, 0.0015870, 0.00, 0.005};
Point(5) = {0.9947532, 0.0019938, 0.00, 0.005};
Point(6) = {0.9906850, 0.0025595, 0.00, 0.005};
Point(7) = {0.9854709, 0.0032804, 0.00, 0.005};
Point(8) = {0.9791229, 0.0041519, 0.00, 0.005};
Point(9) = {0.9716559, 0.0051685, 0.00, 0.005};
Point(10) = {0.9630873, 0.0063238, 0.00, 0.005};
Point(11) = {0.9534372, 0.0076108, 0.00, 0.005};
Point(12) = {0.9427280, 0.0090217, 0.00, 0.005};
Point(13) = {0.9309849, 0.0105485, 0.00, 0.005};
Point(14) = {0.9182351, 0.0121823, 0.00, 0.005};
Point(15) = {0.9045085, 0.0139143, 0.00, 0.005};
Point(16) = {0.8898372, 0.0157351, 0.00, 0.005};
Point(17) = {0.8742554, 0.0176353, 0.00, 0.005};
Point(18) = {0.8577995, 0.0196051, 0.00, 0.005};
Point(19) = {0.8405079, 0.0216347, 0.00, 0.005};
Point(20) = {0.8224211, 0.0237142, 0.00, 0.005};
Point(21) = {0.8035813, 0.0258337, 0.00, 0.005};
Point(22) = {0.7840324, 0.0279828, 0.00, 0.005};
Point(23) = {0.7638202, 0.0301515, 0.00, 0.005};
Point(24) = {0.7429917, 0.0323294, 0.00, 0.005};
Point(25) = {0.7215958, 0.0345058, 0.00, 0.005};
Point(26) = {0.6996823, 0.0366700, 0.00, 0.005};
Point(27) = {0.6773025, 0.0388109, 0.00, 0.005};
Point(28) = {0.6545085, 0.0409174, 0.00, 0.005};
Point(29) = {0.6313537, 0.0429778, 0.00, 0.005};
Point(30) = {0.6078921, 0.0449802, 0.00, 0.005};
Point(31) = {0.5841786, 0.0469124, 0.00, 0.005};
Point(32) = {0.5602683, 0.0487619, 0.00, 0.005};
Point(33) = {0.5362174, 0.0505161, 0.00, 0.005};
Point(34) = {0.5120819, 0.0521620, 0.00, 0.005};
Point(35) = {0.4879181, 0.0536866, 0.00, 0.005};
Point(36) = {0.4637826, 0.0550769, 0.00, 0.005};
Point(37) = {0.4397317, 0.0563200, 0.00, 0.005};
Point(38) = {0.4158215, 0.0574033, 0.00, 0.005};
Point(39) = {0.3921079, 0.0583145, 0.00, 0.005};
Point(40) = {0.3686463, 0.0590419, 0.00, 0.005};
Point(41) = {0.3454915, 0.0595747, 0.00, 0.005};
Point(42) = {0.3226976, 0.0599028, 0.00, 0.005};
Point(43) = {0.3003177, 0.0600172, 0.00, 0.005};
Point(44) = {0.2784042, 0.0599102, 0.00, 0.005};
Point(45) = {0.2570083, 0.0595755, 0.00, 0.005};
Point(46) = {0.2361799, 0.0590081, 0.00, 0.005};
Point(47) = {0.2159676, 0.0582048, 0.00, 0.005};
Point(48) = {0.1964187, 0.0571640, 0.00, 0.005};
Point(49) = {0.1775789, 0.0558856, 0.00, 0.005};
Point(50) = {0.1594921, 0.0543715, 0.00, 0.005};
Point(51) = {0.1422005, 0.0526251, 0.00, 0.005};
Point(52) = {0.1257446, 0.0506513, 0.00, 0.005};
Point(53) = {0.1101628, 0.0484567, 0.00, 0.005};
Point(54) = {0.0954915, 0.0460489, 0.00, 0.005};
Point(55) = {0.0817649, 0.0434371, 0.00, 0.005};
Point(56) = {0.0690152, 0.0406310, 0.00, 0.005};
Point(57) = {0.0572720, 0.0376414, 0.00, 0.005};
Point(58) = {0.0465628, 0.0344792, 0.00, 0.005};
Point(59) = {0.0369127, 0.0311559, 0.00, 0.005};
Point(60) = {0.0283441, 0.0276827, 0.00, 0.005};
Point(61) = {0.0208771, 0.0240706, 0.00, 0.005};
Point(62) = {0.0145291, 0.0203300, 0.00, 0.005};
Point(63) = {0.0093149, 0.0164706, 0.00, 0.005};
Point(64) = {0.0052468, 0.0125011, 0.00, 0.005};
Point(65) = {0.0023342, 0.0084289, 0.00, 0.005};
Point(66) = {0.0005839, 0.0042603, 0.00, 0.005};
Point(67) = {0.0000000, 0.0000000, 0.00, 0.005};
Point(68) = {0.0000000, 0.0000000, 0.00, 0.005};
Point(69) = {0.0005839, -.0042603, 0.00, 0.005};
Point(70) = {0.0023342, -.0084289, 0.00, 0.005};
Point(71) = {0.0052468, -.0125011, 0.00, 0.005};
Point(72) = {0.0093149, -.0164706, 0.00, 0.005};
Point(73) = {0.0145291, -.0203300, 0.00, 0.005};
Point(74) = {0.0208771, -.0240706, 0.00, 0.005};
Point(75) = {0.0283441, -.0276827, 0.00, 0.005};
Point(76) = {0.0369127, -.0311559, 0.00, 0.005};
Point(77) = {0.0465628, -.0344792, 0.00, 0.005};
Point(78) = {0.0572720, -.0376414, 0.00, 0.005};
Point(79) = {0.0690152, -.0406310, 0.00, 0.005};
Point(80) = {0.0817649, -.0434371, 0.00, 0.005};
Point(81) = {0.0954915, -.0460489, 0.00, 0.005};
Point(82) = {0.1101628, -.0484567, 0.00, 0.005};
Point(83) = {0.1257446, -.0506513, 0.00, 0.005};
Point(84) = {0.1422005, -.0526251, 0.00, 0.005};
Point(85) = {0.1594921, -.0543715, 0.00, 0.005};
Point(86) = {0.1775789, -.0558856, 0.00, 0.005};
Point(87) = {0.1964187, -.0571640, 0.00, 0.005};
Point(88) = {0.2159676, -.0582048, 0.00, 0.005};
Point(89) = {0.2361799, -.0590081, 0.00, 0.005};
Point(90) = {0.2570083, -.0595755, 0.00, 0.005};
Point(91) = {0.2784042, -.0599102, 0.00, 0.005};
Point(92) = {0.3003177, -.0600172, 0.00, 0.005};
Point(93) = {0.3226976, -.0599028, 0.00, 0.005};
Point(94) = {0.3454915, -.0595747, 0.00, 0.005};
Point(95) = {0.3686463, -.0590419, 0.00, 0.005};
Point(96) = {0.3921079, -.0583145, 0.00, 0.005};
Point(97) = {0.4158215, -.0574033, 0.00, 0.005};
Point(98) = {0.4397317, -.0563200, 0.00, 0.005};
Point(99) = {0.4637826, -.0550769, 0.00, 0.005};
Point(100) = {0.4879181, -.0536866, 0.00, 0.005};
Point(101) = {0.5120819, -.0521620, 0.00, 0.005};
Point(102) = {0.5362174, -.0505161, 0.00, 0.005};
Point(103) = {0.5602683, -.0487619, 0.00, 0.005};
Point(104) = {0.5841786, -.0469124, 0.00, 0.005};
Point(105) = {0.6078921, -.0449802, 0.00, 0.005};
Point(106) = {0.6313537, -.0429778, 0.00, 0.005};
Point(107) = {0.6545085, -.0409174, 0.00, 0.005};
Point(108) = {0.6773025, -.0388109, 0.00, 0.005};
Point(109) = {0.6996823, -.0366700, 0.00, 0.005};
Point(110) = {0.7215958, -.0345058, 0.00, 0.005};
Point(111) = {0.7429917, -.0323294, 0.00, 0.005};
Point(112) = {0.7638202, -.0301515, 0.00, 0.005};
Point(113) = {0.7840324, -.0279828, 0.00, 0.005};
Point(114) = {0.8035813, -.0258337, 0.00, 0.005};
Point(115) = {0.8224211, -.0237142, 0.00, 0.005};
Point(116) = {0.8405079, -.0216347, 0.00, 0.005};
Point(117) = {0.8577995, -.0196051, 0.00, 0.005};
Point(118) = {0.8742554, -.0176353, 0.00, 0.005};
Point(119) = {0.8898372, -.0157351, 0.00, 0.005};
Point(120) = {0.9045085, -.0139143, 0.00, 0.005};
Point(121) = {0.9182351, -.0121823, 0.00, 0.005};
Point(122) = {0.9309849, -.0105485, 0.00, 0.005};
Point(123) = {0.9427280, -.0090217, 0.00, 0.005};
Point(124) = {0.9534372, -.0076108, 0.00, 0.005};
Point(125) = {0.9630873, -.0063238, 0.00, 0.005};
Point(126) = {0.9716559, -.0051685, 0.00, 0.005};
Point(127) = {0.9791229, -.0041519, 0.00, 0.005};
Point(128) = {0.9854709, -.0032804, 0.00, 0.005};
Point(129) = {0.9906850, -.0025595, 0.00, 0.005};
Point(130) = {0.9947532, -.0019938, 0.00, 0.005};
Point(131) = {0.9976658, -.0015870, 0.00, 0.005};
Point(132) = {0.9994161, -.0013419, 0.00, 0.005};
Point(133) = {1.0000000, -.0012600, 0.00, 0.005};
Point(134)={1.005, 0.00, 0.00, 0.010};

// Fit a spline on the points specified

Spline(1) = {1:67,68};
// Fit a spline on the points specified

Spline(2) = {68:134,1};
// Rotate
//Rotate{{0,0,1}, {1,0,0}, 0.0} {Line{1};Line{2};};


// Add a box 
Point(135) = {-10 ,-10, 0.0, 1.5};
Point(136) = {20 ,-10, 0.0, 1.5};
Point(137) = {20 ,10, 0.0, 1.5};
Point(138) = {-10 ,10, 0.0, 1.5};

// Create lines for the boundary
Line(3) = {135 ,136 };
Line(4) = {136 ,137 };
Line(5) = {137 ,138 };
Line(6) = {138 ,135 };

// Loop a line 
Line Loop (1) = {3,4,5,6};

// Loop a line 
Line Loop (2) = {1,2};

// Create plane surface
Plane Surface (1) = {1,2};

Point(139)={2, 0.00, 0.00, 0.010};


// Create Physical section for boundary conditions
Physical Line(21) = {6};


// Create Physical section for boundary conditions
Physical Line(22) = {3,4,5};


// Create Physical section for boundary conditions
Physical Line(23) = {1,2};


// Create Physical section for boundary conditions
Physical Surface(24) = {1};

Rotate {{0, 0, 1}, {0.5, 0, 0}, -Pi/18} {
  Line{1, 2};
}
