Point(1) = {0, 0, 0, 0.1};
Point(2) = {0.6, 0, 0, 0.01};
Point(3) = {0.6, 0.2, 0, 0.01};
Point(4) = {3, 0.2, 0, 0.1};
Point(5) = {3, 1, 0, 0.1};
Point(6) = {0, 1, 0, 0.1};
Line(1) = {1, 2};
Line(2) = {2, 3};
Line(3) = {3, 4};
Line(4) = {4, 5};
Line(5) = {5, 6};
Line(6) = {6, 1};
Line Loop(7) = {5, 6, 1, 2, 3, 4};
Plane Surface(8) = {7};
Physical Line(9) = {6};
Physical Line(10) = {4};
Physical Line(11) = {1, 3, 2, 5};
Physical Surface(12) = {8};

