Point(1) = {1, 0.0149428, 0.0, 0.1};
Point(2) = {0.98889, 0.0181057, 0.0, 0.5};
Point(3) = {0.976607, 0.0210351, 0.0, 0.5};
Point(4) = {0.963189, 0.0241423, 0.0, 0.5};
Point(5) = {0.948588, 0.0274963, 0.0, 0.5};
Point(6) = {0.932744, 0.0311061, 0.0, 0.5};
Point(7) = {0.915609, 0.034986, 0.0, 0.5};
Point(8) = {0.897134, 0.0391209, 0.0, 0.5};
Point(9) = {0.877287, 0.0435159, 0.0, 0.5};
Point(10) = {0.856035, 0.0481005, 0.0, 0.5};
Point(11) = {0.833376, 0.0528736, 0.0, 0.5};
Point(12) = {0.809314, 0.0577654, 0.0, 0.5};
Point(13) = {0.783869, 0.0626814, 0.0, 0.5};
Point(14) = {0.757087, 0.0675148, 0.0, 0.5};
Point(15) = {0.729032, 0.0721382, 0.0, 0.5};
Point(16) = {0.699805, 0.0764449, 0.0, 0.5};
Point(17) = {0.669525, 0.0803079, 0.0, 0.5};
Point(18) = {0.638349, 0.0836421, 0.0, 0.5};
Point(19) = {0.606457, 0.0864421, 0.0, 0.5};
Point(20) = {0.574048, 0.0887354, 0.0, 0.5};
Point(21) = {0.541332, 0.090566, 0.0, 0.5};
Point(22) = {0.508522, 0.0919552, 0.0, 0.5};
Point(23) = {0.475828, 0.0929018, 0.0, 0.5};
Point(24) = {0.443461, 0.0934685, 0.0, 0.5};
Point(25) = {0.411619, 0.0936657, 0.0, 0.5};
Point(26) = {0.380488, 0.0935057, 0.0, 0.5};
Point(27) = {0.350236, 0.0930268, 0.0, 0.5};
Point(28) = {0.321011, 0.0922349, 0.0, 0.5};
Point(29) = {0.292941, 0.0911594, 0.0, 0.5};
Point(30) = {0.266126, 0.0898405, 0.0, 0.5};
Point(31) = {0.240646, 0.0882953, 0.0, 0.5};
Point(32) = {0.216556, 0.0865524, 0.0, 0.5};
Point(33) = {0.193888, 0.0846405, 0.0, 0.5};
Point(34) = {0.172657, 0.0825795, 0.0, 0.5};
Point(35) = {0.152857, 0.0803819, 0.0, 0.5};
Point(36) = {0.134465, 0.0780884, 0.0, 0.5};
Point(37) = {0.11745, 0.0756886, 0.0, 0.5};
Point(38) = {0.101766, 0.0732278, 0.0, 0.5};
Point(39) = {0.0873682, 0.0706543, 0.0, 0.5};
Point(40) = {0.0741992, 0.0679903, 0.0, 0.5};
Point(41) = {0.0622221, 0.065145, 0.0, 0.5};
Point(42) = {0.0514102, 0.0620295, 0.0, 0.5};
Point(43) = {0.0417358, 0.0586023, 0.0, 0.5};
Point(44) = {0.0331437, 0.0549341, 0.0, 0.5};
Point(45) = {0.0257097, 0.0508396, 0.0, 0.5};
Point(46) = {0.0196069, 0.0461528, 0.0, 0.5};
Point(47) = {0.0147785, 0.0411199, 0.0, 0.5};
Point(48) = {0.0109831, 0.0360776, 0.0, 0.5};
Point(49) = {0.00803317, 0.0311967, 0.0, 0.5};
Point(50) = {0.00576, 0.0265771, 0.0, 0.5};
Point(51) = {0.00403732, 0.0222659, 0.0, 0.5};
Point(52) = {0.0027713, 0.0182792, 0.0, 0.5};
Point(53) = {0.00184002, 0.0146307, 0.0, 0.5};
Point(54) = {0.00114858, 0.0113145, 0.0, 0.5};
Point(55) = {0.000652044, 0.0083101, 0.0, 0.5};
Point(56) = {0.000312906, 0.00559536, 0.0, 0.5};
Point(57) = {9.61549e-05, 0.00314819, 0.0, 0.5};
Point(58) = {-1.10152e-05, 0.000945611, 0.0, 0.5};
Point(59) = {-4.29499e-05, -0.00103246, 0.0, 0.5};
Point(60) = {-8.95027e-06, -0.00280608, 0.0, 0.5};
Point(61) = {7.70531e-05, -0.00439451, 0.0, 0.5};
Point(62) = {0.00019828, -0.00581517, 0.0, 0.5};
Point(63) = {0.000345054, -0.00708384, 0.0, 0.5};
Point(64) = {0.00051178, -0.00821596, 0.0, 0.5};
Point(65) = {0.000687091, -0.00922565, 0.0, 0.5};
Point(66) = {0.000862014, -0.0101264, 0.0, 0.5};
Point(67) = {0.00103376, -0.0109296, 0.0, 0.5};
Point(68) = {0.00120093, -0.0116456, 0.0, 0.5};
Point(69) = {0.00136147, -0.0122837, 0.0, 0.5};
Point(70) = {0.0015135, -0.0128528, 0.0, 0.5};
Point(71) = {0.00166594, -0.0133883, 0.0, 0.5};
Point(72) = {0.00184411, -0.0139791, 0.0, 0.5};
Point(73) = {0.0020531, -0.0146309, 0.0, 0.5};
Point(74) = {0.00229918, -0.0153494, 0.0, 0.5};
Point(75) = {0.00258966, -0.0161352, 0.0, 0.5};
Point(76) = {0.00293306, -0.0169935, 0.0, 0.5};
Point(77) = {0.00333958, -0.0179315, 0.0, 0.5};
Point(78) = {0.00382146, -0.0189583, 0.0, 0.5};
Point(79) = {0.004389, -0.0200784, 0.0, 0.5};
Point(80) = {0.00505394, -0.0212906, 0.0, 0.5};
Point(81) = {0.00584122, -0.0226014, 0.0, 0.5};
Point(82) = {0.00677626, -0.0240145, 0.0, 0.5};
Point(83) = {0.007872, -0.0255233, 0.0, 0.5};
Point(84) = {0.00916434, -0.0271341, 0.0, 0.5};
Point(85) = {0.0106692, -0.0288393, 0.0, 0.5};
Point(86) = {0.0124349, -0.0306283, 0.0, 0.5};
Point(87) = {0.0144854, -0.0324873, 0.0, 0.5};
Point(88) = {0.0168696, -0.0343975, 0.0, 0.5};
Point(89) = {0.0195978, -0.0363607, 0.0, 0.5};
Point(90) = {0.0227069, -0.0383727, 0.0, 0.5};
Point(91) = {0.0262424, -0.0403992, 0.0, 0.5};
Point(92) = {0.0302304, -0.0424388, 0.0, 0.5};
Point(93) = {0.0346961, -0.0445046, 0.0, 0.5};
Point(94) = {0.0396937, -0.0465554, 0.0, 0.5};
Point(95) = {0.0452536, -0.0485996, 0.0, 0.5};
Point(96) = {0.0514012, -0.0506765, 0.0, 0.5};
Point(97) = {0.058191, -0.0527524, 0.0, 0.5};
Point(98) = {0.0656781, -0.0547871, 0.0, 0.5};
Point(99) = {0.0738985, -0.0568138, 0.0, 0.5};
Point(100) = {0.0828992, -0.0588384, 0.0, 0.5};
Point(101) = {0.0927317, -0.0608465, 0.0, 0.5};
Point(102) = {0.103444, -0.0628456, 0.0, 0.5};
Point(103) = {0.115091, -0.0648027, 0.0, 0.5};
Point(104) = {0.127714, -0.0667476, 0.0, 0.5};
Point(105) = {0.141364, -0.0686412, 0.0, 0.5};
Point(106) = {0.156079, -0.0705121, 0.0, 0.5};
Point(107) = {0.171898, -0.07233, 0.0, 0.5};
Point(108) = {0.188856, -0.0740482, 0.0, 0.5};
Point(109) = {0.206974, -0.0756574, 0.0, 0.5};
Point(110) = {0.226265, -0.0771408, 0.0, 0.5};
Point(111) = {0.246732, -0.078479, 0.0, 0.5};
Point(112) = {0.268364, -0.079615, 0.0, 0.5};
Point(113) = {0.291136, -0.0805286, 0.0, 0.5};
Point(114) = {0.315005, -0.081222, 0.0, 0.5};
Point(115) = {0.339917, -0.0816033, 0.0, 0.5};
Point(116) = {0.365795, -0.081671, 0.0, 0.5};
Point(117) = {0.39255, -0.0813882, 0.0, 0.5};
Point(118) = {0.420073, -0.0806864, 0.0, 0.5};
Point(119) = {0.448239, -0.0794861, 0.0, 0.5};
Point(120) = {0.476903, -0.0776755, 0.0, 0.5};
Point(121) = {0.505903, -0.0751305, 0.0, 0.5};
Point(122) = {0.535067, -0.0717997, 0.0, 0.5};
Point(123) = {0.564233, -0.0677704, 0.0, 0.5};
Point(124) = {0.593257, -0.063226, 0.0, 0.5};
Point(125) = {0.621993, -0.0582764, 0.0, 0.5};
Point(126) = {0.650292, -0.0529689, 0.0, 0.5};
Point(127) = {0.678024, -0.0474067, 0.0, 0.5};
Point(128) = {0.705043, -0.0415588, 0.0, 0.5};
Point(129) = {0.731167, -0.0352002, 0.0, 0.5};
Point(130) = {0.756291, -0.0284081, 0.0, 0.5};
Point(131) = {0.78032, -0.0212457, 0.0, 0.5};
Point(132) = {0.803206, -0.013862, 0.0, 0.5};
Point(133) = {0.825003, -0.00663042, 0.0, 0.5};
Point(134) = {0.84572, 0.000291866, 0.0, 0.5};
Point(135) = {0.862553, 0.00563174, 0.0, 0.5};
Point(136) = {0.875453, 0.00933278, 0.0, 0.5};
Point(137) = {0.886027, 0.0119976, 0.0, 0.5};
Point(138) = {0.895161, 0.0139296, 0.0, 0.5};
Point(139) = {0.903404, 0.0154189, 0.0, 0.5};
Point(140) = {0.911128, 0.0166352, 0.0, 0.5};
Point(141) = {0.918648, 0.0176361, 0.0, 0.5};
Point(142) = {0.926245, 0.0184456, 0.0, 0.5};
Point(143) = {0.9342, 0.0190571, 0.0, 0.5};
Point(144) = {0.942863, 0.0194415, 0.0, 0.5};
Point(145) = {0.95268, 0.0195321, 0.0, 0.5};
Point(146) = {0.964349, 0.0191799, 0.0, 0.5};
Point(147) = {0.977244, 0.0182165, 0.0, 0.5};
Point(148) = {0.989084, 0.0165729, 0.0, 0.1};

Line(2) = {1, 2};
Line(3) = {2, 3};
Line(4) = {3, 4};
Line(5) = {4, 5};
Line(6) = {5, 6};
Line(7) = {6, 7};
Line(8) = {7, 8};
Line(9) = {8, 9};
Line(10) = {9, 10};
Line(11) = {10, 11};
Line(12) = {11, 12};
Line(13) = {12, 13};
Line(14) = {13, 14};
Line(15) = {14, 15};
Line(16) = {15, 16};
Line(17) = {16, 17};
Line(18) = {17, 18};
Line(19) = {18, 19};
Line(20) = {19, 20};
Line(21) = {20, 21};
Line(22) = {21, 22};
Line(23) = {22, 23};
Line(24) = {23, 24};
Line(25) = {24, 25};
Line(26) = {25, 26};
Line(27) = {26, 27};
Line(28) = {27, 28};
Line(29) = {28, 29};
Line(30) = {29, 30};
Line(31) = {30, 31};
Line(32) = {31, 32};
Line(33) = {32, 33};
Line(34) = {33, 34};
Line(35) = {34, 35};
Line(36) = {35, 36};
Line(37) = {36, 37};
Line(38) = {37, 38};
Line(39) = {38, 39};
Line(40) = {39, 40};
Line(41) = {40, 41};
Line(42) = {41, 42};
Line(43) = {42, 43};
Line(44) = {43, 44};
Line(45) = {44, 45};
Line(46) = {45, 46};
Line(47) = {46, 47};
Line(48) = {47, 48};
Line(49) = {48, 49};
Line(50) = {49, 50};
Line(51) = {50, 51};
Line(52) = {51, 52};
Line(53) = {52, 53};
Line(54) = {53, 54};
Line(55) = {54, 55};
Line(56) = {55, 56};
Line(57) = {56, 57};
Line(58) = {57, 58};
Line(59) = {58, 59};
Line(60) = {59, 60};
Line(61) = {60, 61};
Line(62) = {61, 62};
Line(63) = {62, 63};
Line(64) = {63, 64};
Line(65) = {64, 65};
Line(66) = {65, 66};
Line(67) = {66, 67};
Line(68) = {67, 68};
Line(69) = {68, 69};
Line(70) = {69, 70};
Line(71) = {70, 71};
Line(72) = {71, 72};
Line(73) = {72, 73};
Line(74) = {73, 74};
Line(75) = {74, 75};
Line(76) = {75, 76};
Line(77) = {76, 77};
Line(78) = {77, 78};
Line(79) = {78, 79};
Line(80) = {79, 80};
Line(81) = {80, 81};
Line(82) = {81, 82};
Line(83) = {82, 83};
Line(84) = {83, 84};
Line(85) = {84, 85};
Line(86) = {85, 86};
Line(87) = {86, 87};
Line(88) = {87, 88};
Line(89) = {88, 89};
Line(90) = {89, 90};
Line(91) = {90, 91};
Line(92) = {91, 92};
Line(93) = {92, 93};
Line(94) = {93, 94};
Line(95) = {94, 95};
Line(96) = {95, 96};
Line(97) = {96, 97};
Line(98) = {97, 98};
Line(99) = {98, 99};
Line(100) = {99, 100};
Line(101) = {100, 101};
Line(102) = {101, 102};
Line(103) = {102, 103};
Line(104) = {103, 104};
Line(105) = {104, 105};
Line(106) = {105, 106};
Line(107) = {106, 107};
Line(108) = {107, 108};
Line(109) = {108, 109};
Line(110) = {109, 110};
Line(111) = {110, 111};
Line(112) = {111, 112};
Line(113) = {112, 113};
Line(114) = {113, 114};
Line(115) = {114, 115};
Line(116) = {115, 116};
Line(117) = {116, 117};
Line(118) = {117, 118};
Line(119) = {118, 119};
Line(120) = {119, 120};
Line(121) = {120, 121};
Line(122) = {121, 122};
Line(123) = {122, 123};
Line(124) = {123, 124};
Line(125) = {124, 125};
Line(126) = {125, 126};
Line(127) = {126, 127};
Line(128) = {127, 128};
Line(129) = {128, 129};
Line(130) = {129, 130};
Line(131) = {130, 131};
Line(132) = {131, 132};
Line(133) = {132, 133};
Line(134) = {133, 134};
Line(135) = {134, 135};
Line(136) = {135, 136};
Line(137) = {136, 137};
Line(138) = {137, 138};
Line(139) = {138, 139};
Line(140) = {139, 140};
Line(141) = {140, 141};
Line(142) = {141, 142};
Line(143) = {142, 143};
Line(144) = {143, 144};
Line(145) = {144, 145};
Line(146) = {145, 146};
Line(147) = {146, 147};
Line(148) = {147, 148};
Line(149) = {148, 1};
Point(150) = {1.27339, -0.110475, 0.0, 0.1};
Point(151) = {1.27035, -0.108369, 0.0, 0.5};
Point(152) = {1.26711, -0.106129, 0.0, 0.5};
Point(153) = {1.26368, -0.103751, 0.0, 0.5};
Point(154) = {1.26004, -0.10123, 0.0, 0.5};
Point(155) = {1.25618, -0.0985631, 0.0, 0.5};
Point(156) = {1.25205, -0.0958312, 0.0, 0.5};
Point(157) = {1.24759, -0.093119, 0.0, 0.5};
Point(158) = {1.24287, -0.0903141, 0.0, 0.5};
Point(159) = {1.2379, -0.087411, 0.0, 0.5};
Point(160) = {1.23265, -0.0844332, 0.0, 0.5};
Point(161) = {1.22713, -0.0813847, 0.0, 0.5};
Point(162) = {1.22135, -0.0782782, 0.0, 0.5};
Point(163) = {1.2153, -0.075131, 0.0, 0.5};
Point(164) = {1.20898, -0.071941, 0.0, 0.5};
Point(165) = {1.20243, -0.06871, 0.0, 0.5};
Point(166) = {1.19565, -0.0654403, 0.0, 0.5};
Point(167) = {1.18864, -0.0621584, 0.0, 0.5};
Point(168) = {1.18142, -0.0588842, 0.0, 0.5};
Point(169) = {1.17403, -0.0556215, 0.0, 0.5};
Point(170) = {1.16646, -0.0523905, 0.0, 0.5};
Point(171) = {1.15874, -0.049211, 0.0, 0.5};
Point(172) = {1.1509, -0.0460901, 0.0, 0.5};
Point(173) = {1.14296, -0.0430589, 0.0, 0.5};
Point(174) = {1.13494, -0.0401402, 0.0, 0.5};
Point(175) = {1.12688, -0.0373392, 0.0, 0.5};
Point(176) = {1.11879, -0.0346631, 0.0, 0.5};
Point(177) = {1.11072, -0.0321264, 0.0, 0.5};
Point(178) = {1.1027, -0.0297299, 0.0, 0.5};
Point(179) = {1.09474, -0.0274737, 0.0, 0.5};
Point(180) = {1.08689, -0.0253627, 0.0, 0.5};
Point(181) = {1.07915, -0.0234009, 0.0, 0.5};
Point(182) = {1.07157, -0.0215957, 0.0, 0.5};
Point(183) = {1.06415, -0.0199701, 0.0, 0.5};
Point(184) = {1.05691, -0.018521, 0.0, 0.5};
Point(185) = {1.04988, -0.0172506, 0.0, 0.5};
Point(186) = {1.04306, -0.0161692, 0.0, 0.5};
Point(187) = {1.03648, -0.0152495, 0.0, 0.5};
Point(188) = {1.03014, -0.0144843, 0.0, 0.5};
Point(189) = {1.02405, -0.0138718, 0.0, 0.5};
Point(190) = {1.01822, -0.0133876, 0.0, 0.5};
Point(191) = {1.01266, -0.0130328, 0.0, 0.5};
Point(192) = {1.00736, -0.0128113, 0.0, 0.5};
Point(193) = {1.00233, -0.0127002, 0.0, 0.5};
Point(194) = {0.997556, -0.0126943, 0.0, 0.5};
Point(195) = {0.993046, -0.0127807, 0.0, 0.5};
Point(196) = {0.988792, -0.0129358, 0.0, 0.5};
Point(197) = {0.984785, -0.0131374, 0.0, 0.5};
Point(198) = {0.981019, -0.0133773, 0.0, 0.5};
Point(199) = {0.977485, -0.0136531, 0.0, 0.5};
Point(200) = {0.974174, -0.0139609, 0.0, 0.5};
Point(201) = {0.971078, -0.0143041, 0.0, 0.5};
Point(202) = {0.968188, -0.0146761, 0.0, 0.5};
Point(203) = {0.965496, -0.0150884, 0.0, 0.5};
Point(204) = {0.962995, -0.015541, 0.0, 0.5};
Point(205) = {0.960679, -0.0160464, 0.0, 0.5};
Point(206) = {0.958538, -0.0165913, 0.0, 0.5};
Point(207) = {0.95657, -0.017182, 0.0, 0.5};
Point(208) = {0.954759, -0.0177974, 0.0, 0.5};
Point(209) = {0.953109, -0.0184526, 0.0, 0.5};
Point(210) = {0.9516, -0.0191283, 0.0, 0.5};
Point(211) = {0.950252, -0.0198469, 0.0, 0.5};
Point(212) = {0.949034, -0.0205891, 0.0, 0.5};
Point(213) = {0.947968, -0.021356, 0.0, 0.5};
Point(214) = {0.947033, -0.02214, 0.0, 0.5};
Point(215) = {0.946214, -0.0229255, 0.0, 0.5};
Point(216) = {0.945531, -0.0237067, 0.0, 0.5};
Point(217) = {0.944939, -0.0244853, 0.0, 0.5};
Point(218) = {0.944455, -0.025251, 0.0, 0.5};
Point(219) = {0.944084, -0.0259881, 0.0, 0.5};
Point(220) = {0.943798, -0.0266887, 0.0, 0.5};
Point(221) = {0.943608, -0.0273608, 0.0, 0.5};
Point(222) = {0.943509, -0.028008, 0.0, 0.5};
Point(223) = {0.94348, -0.0286271, 0.0, 0.5};
Point(224) = {0.943513, -0.0291857, 0.0, 0.5};
Point(225) = {0.943597, -0.0296836, 0.0, 0.5};
Point(226) = {0.943719, -0.0301406, 0.0, 0.5};
Point(227) = {0.943867, -0.0305693, 0.0, 0.5};
Point(228) = {0.944024, -0.0309519, 0.0, 0.5};
Point(229) = {0.944187, -0.0312844, 0.0, 0.5};
Point(230) = {0.944369, -0.0315915, 0.0, 0.5};
Point(231) = {0.944607, -0.0319201, 0.0, 0.5};
Point(232) = {0.944928, -0.0322705, 0.0, 0.5};
Point(233) = {0.945338, -0.0326312, 0.0, 0.5};
Point(234) = {0.945825, -0.0329784, 0.0, 0.5};
Point(235) = {0.946406, -0.0332941, 0.0, 0.5};
Point(236) = {0.947104, -0.0335552, 0.0, 0.5};
Point(237) = {0.947914, -0.0338034, 0.0, 0.5};
Point(238) = {0.948839, -0.0340507, 0.0, 0.5};
Point(239) = {0.949897, -0.0342551, 0.0, 0.5};
Point(240) = {0.951096, -0.034431, 0.0, 0.5};
Point(241) = {0.952443, -0.0346227, 0.0, 0.5};
Point(242) = {0.95396, -0.0348198, 0.0, 0.5};
Point(243) = {0.955664, -0.0350339, 0.0, 0.5};
Point(244) = {0.957575, -0.0352735, 0.0, 0.5};
Point(245) = {0.959714, -0.0355407, 0.0, 0.5};
Point(246) = {0.962107, -0.0358397, 0.0, 0.5};
Point(247) = {0.964777, -0.0361789, 0.0, 0.5};
Point(248) = {0.96775, -0.0365686, 0.0, 0.5};
Point(249) = {0.971055, -0.0370095, 0.0, 0.5};
Point(250) = {0.974723, -0.0374982, 0.0, 0.5};
Point(251) = {0.978783, -0.0380354, 0.0, 0.5};
Point(252) = {0.983265, -0.0386261, 0.0, 0.5};
Point(253) = {0.988198, -0.0392753, 0.0, 0.5};
Point(254) = {0.993607, -0.0399884, 0.0, 0.5};
Point(255) = {0.999519, -0.0407737, 0.0, 0.5};
Point(256) = {1.00595, -0.0416395, 0.0, 0.5};
Point(257) = {1.01292, -0.0425819, 0.0, 0.5};
Point(258) = {1.02044, -0.0436047, 0.0, 0.5};
Point(259) = {1.02851, -0.0447386, 0.0, 0.5};
Point(260) = {1.03711, -0.0459695, 0.0, 0.5};
Point(261) = {1.04624, -0.0473102, 0.0, 0.5};
Point(262) = {1.05586, -0.0487673, 0.0, 0.5};
Point(263) = {1.06593, -0.050361, 0.0, 0.5};
Point(264) = {1.0764, -0.0520919, 0.0, 0.5};
Point(265) = {1.08721, -0.0539633, 0.0, 0.5};
Point(266) = {1.09828, -0.0559911, 0.0, 0.5};
Point(267) = {1.10953, -0.0581661, 0.0, 0.5};
Point(268) = {1.12087, -0.0604883, 0.0, 0.5};
Point(269) = {1.13221, -0.0629643, 0.0, 0.5};
Point(270) = {1.14346, -0.0655755, 0.0, 0.5};
Point(271) = {1.15453, -0.0683057, 0.0, 0.5};
Point(272) = {1.16534, -0.0711461, 0.0, 0.5};
Point(273) = {1.1758, -0.0740778, 0.0, 0.5};
Point(274) = {1.18587, -0.0770466, 0.0, 0.5};
Point(275) = {1.19547, -0.0800524, 0.0, 0.5};
Point(276) = {1.20457, -0.0830672, 0.0, 0.5};
Point(277) = {1.21314, -0.0860476, 0.0, 0.5};
Point(278) = {1.22115, -0.0889646, 0.0, 0.5};
Point(279) = {1.22862, -0.0917771, 0.0, 0.5};
Point(280) = {1.23554, -0.0944549, 0.0, 0.5};
Point(281) = {1.24191, -0.0970209, 0.0, 0.5};
Point(282) = {1.24772, -0.0995322, 0.0, 0.5};
Point(283) = {1.25303, -0.101888, 0.0, 0.5};
Point(284) = {1.25792, -0.103954, 0.0, 0.5};
Point(285) = {1.26238, -0.105832, 0.0, 0.5};
Point(286) = {1.26642, -0.107538, 0.0, 0.5};
Point(287) = {1.27009, -0.109081, 0.0, 0.1};

Line(150) = {150, 151};
Line(151) = {151, 152};
Line(152) = {152, 153};
Line(153) = {153, 154};
Line(154) = {154, 155};
Line(155) = {155, 156};
Line(156) = {156, 157};
Line(157) = {157, 158};
Line(158) = {158, 159};
Line(159) = {159, 160};
Line(160) = {160, 161};
Line(161) = {161, 162};
Line(162) = {162, 163};
Line(163) = {163, 164};
Line(164) = {164, 165};
Line(165) = {165, 166};
Line(166) = {166, 167};
Line(167) = {167, 168};
Line(168) = {168, 169};
Line(169) = {169, 170};
Line(170) = {170, 171};
Line(171) = {171, 172};
Line(172) = {172, 173};
Line(173) = {173, 174};
Line(174) = {174, 175};
Line(175) = {175, 176};
Line(176) = {176, 177};
Line(177) = {177, 178};
Line(178) = {178, 179};
Line(179) = {179, 180};
Line(180) = {180, 181};
Line(181) = {181, 182};
Line(182) = {182, 183};
Line(183) = {183, 184};
Line(184) = {184, 185};
Line(185) = {185, 186};
Line(186) = {186, 187};
Line(187) = {187, 188};
Line(188) = {188, 189};
Line(189) = {189, 190};
Line(190) = {190, 191};
Line(191) = {191, 192};
Line(192) = {192, 193};
Line(193) = {193, 194};
Line(194) = {194, 195};
Line(195) = {195, 196};
Line(196) = {196, 197};
Line(197) = {197, 198};
Line(198) = {198, 199};
Line(199) = {199, 200};
Line(200) = {200, 201};
Line(201) = {201, 202};
Line(202) = {202, 203};
Line(203) = {203, 204};
Line(204) = {204, 205};
Line(205) = {205, 206};
Line(206) = {206, 207};
Line(207) = {207, 208};
Line(208) = {208, 209};
Line(209) = {209, 210};
Line(210) = {210, 211};
Line(211) = {211, 212};
Line(212) = {212, 213};
Line(213) = {213, 214};
Line(214) = {214, 215};
Line(215) = {215, 216};
Line(216) = {216, 217};
Line(217) = {217, 218};
Line(218) = {218, 219};
Line(219) = {219, 220};
Line(220) = {220, 221};
Line(221) = {221, 222};
Line(222) = {222, 223};
Line(223) = {223, 224};
Line(224) = {224, 225};
Line(225) = {225, 226};
Line(226) = {226, 227};
Line(227) = {227, 228};
Line(228) = {228, 229};
Line(229) = {229, 230};
Line(230) = {230, 231};
Line(231) = {231, 232};
Line(232) = {232, 233};
Line(233) = {233, 234};
Line(234) = {234, 235};
Line(235) = {235, 236};
Line(236) = {236, 237};
Line(237) = {237, 238};
Line(238) = {238, 239};
Line(239) = {239, 240};
Line(240) = {240, 241};
Line(241) = {241, 242};
Line(242) = {242, 243};
Line(243) = {243, 244};
Line(244) = {244, 245};
Line(245) = {245, 246};
Line(246) = {246, 247};
Line(247) = {247, 248};
Line(248) = {248, 249};
Line(249) = {249, 250};
Line(250) = {250, 251};
Line(251) = {251, 252};
Line(252) = {252, 253};
Line(253) = {253, 254};
Line(254) = {254, 255};
Line(255) = {255, 256};
Line(256) = {256, 257};
Line(257) = {257, 258};
Line(258) = {258, 259};
Line(259) = {259, 260};
Line(260) = {260, 261};
Line(261) = {261, 262};
Line(262) = {262, 263};
Line(263) = {263, 264};
Line(264) = {264, 265};
Line(265) = {265, 266};
Line(266) = {266, 267};
Line(267) = {267, 268};
Line(268) = {268, 269};
Line(269) = {269, 270};
Line(270) = {270, 271};
Line(271) = {271, 272};
Line(272) = {272, 273};
Line(273) = {273, 274};
Line(274) = {274, 275};
Line(275) = {275, 276};
Line(276) = {276, 277};
Line(277) = {277, 278};
Line(278) = {278, 279};
Line(279) = {279, 280};
Line(280) = {280, 281};
Line(281) = {281, 282};
Line(282) = {282, 283};
Line(283) = {283, 284};
Line(284) = {284, 285};
Line(285) = {285, 286};
Line(286) = {286, 287};
Line(289) = {287,150};

Point(300) = {-3, -4, 0, 2.0};
Point(301) = {10, -4, 0, 2.0};
Point(302) = {10, 4, 0, 2.0};
Point(303) = {-3, 4, 0, 2.0};
Line(290) = {300, 301};
Line(291) = {301, 302};

Line(292) = {302, 303};
Line(293) = {303, 300};
Line Loop(294) = {292, 293, 290, 291};
Line Loop(295) = {28, 29, 30, 31, 32, 33, 34, 35, 36, 37, 38, 39, 40, 41, 42, 43, 44, 45, 46, 47, 48, 49, 50, 51, 52, 53, 54, 55, 56, 57, 58, 59, 60, 61, 62, 63, 64, 65, 66, 67, 68, 69, 70, 71, 72, 73, 74, 75, 76, 77, 78, 79, 80, 81, 82, 83, 84, 85, 86, 87, 88, 89, 90, 91, 92, 93, 94, 95, 96, 97, 98, 99, 100, 101, 102, 103, 104, 105, 106, 107, 108, 109, 110, 111, 112, 113, 114, 115, 116, 117, 118, 119, 120, 121, 122, 123, 124, 125, 126, 127, 128, 129, 130, 131, 132, 133, 134, 135, 136, 137, 138, 139, 140, 141, 142, 143, 144, 145, 146, 147, 148, 149, 2, 3, 4, 5, 6, 7, 8, 9, 10, 11, 12, 13, 14, 15, 16, 17, 18, 19, 20, 21, 22, 23, 24, 25, 26, 27};
Line Loop(296) = {179, 180, 181, 182, 183, 184, 185, 186, 187, 188, 189, 190, 191, 192, 193, 194, 195, 196, 197, 198, 199, 200, 201, 202, 203, 204, 205, 206, 207, 208, 209, 210, 211, 212, 213, 214, 215, 216, 217, 218, 219, 220, 221, 222, 223, 224, 225, 226, 227, 228, 229, 230, 231, 232, 233, 234, 235, 236, 237, 238, 239, 240, 241, 242, 243, 244, 245, 246, 247, 248, 249, 250, 251, 252, 253, 254, 255, 256, 257, 258, 259, 260, 261, 262, 263, 264, 265, 266, 267, 268, 269, 270, 271, 272, 273, 274, 275, 276, 277, 278, 279, 280, 281, 282, 283, 284, 285, 286, 289, 150, 151, 152, 153, 154, 155, 156, 157, 158, 159, 160, 161, 162, 163, 164, 165, 166, 167, 168, 169, 170, 171, 172, 173, 174, 175, 176, 177, 178};
Plane Surface(297) = {294, 295, 296};
Transfinite Line {292, 290} = 51 Using Progression 1;
Transfinite Line {293, 291} = 21 Using Progression 1;
Physical Line(298) = {27, 198, 197, 196, 195, 194, 193, 192, 191, 190, 189, 188, 187, 186, 185, 184, 183, 182, 216, 215, 214, 213, 212, 211, 210, 209, 208, 207, 206, 205, 204, 203, 202, 201, 200, 199, 163, 162, 161, 160, 159, 158, 157, 156, 155, 154, 153, 152, 151, 150, 149, 148, 147, 146, 181, 180, 179, 178, 177, 176, 175, 174, 173, 172, 171, 170, 169, 168, 167, 166, 165, 164, 270, 269, 268, 267, 266, 265, 264, 263, 262, 261, 260, 259, 258, 257, 256, 255, 254, 253, 289, 286, 285, 284, 283, 282, 281, 280, 279, 278, 277, 276, 275, 274, 273, 272, 271, 234, 233, 232, 231, 230, 229, 228, 227, 226, 225, 224, 223, 222, 221, 220, 219, 218, 217, 252, 251, 250, 249, 248, 247, 246, 245, 244, 243, 242, 241, 240, 239, 238, 237, 236, 235, 55, 54, 53, 52, 51, 50, 49, 48, 47, 46, 45, 44, 43, 42, 41, 40, 39, 38, 73, 72, 71, 70, 69, 68, 67, 66, 65, 64, 63, 62, 61, 60, 59, 58, 57, 56, 19, 18, 17, 16, 15, 14, 13, 12, 11, 10, 9, 8, 7, 6, 5, 4, 3, 2, 37, 36, 35, 34, 33, 32, 31, 30, 29, 28, 26, 25, 24, 23, 22, 21, 20, 127, 126, 125, 124, 123, 122, 121, 120, 119, 118, 117, 116, 115, 114, 113, 112, 111, 110, 145, 144, 143, 142, 141, 140, 139, 138, 137, 136, 135, 134, 133, 132, 131, 130, 129, 128, 91, 90, 89, 88, 87, 86, 85, 84, 83, 82, 81, 80, 79, 78, 77, 76, 75, 74, 109, 108, 107, 106, 105, 104, 103, 102, 101, 100, 99, 98, 97, 96, 95, 94, 93, 92};
Physical Line(2) = {292};
Physical Line(3) = {293};
Physical Line(4) = {290};
Physical Line(5) = {291};
Physical Surface(6) = {297};
Transfinite Line {292, 290} = 51 Using Progression 1;
