Point(1) = {0, 0, 0, 1.0};
Point(2) = {1/6, 0, 0, 1.0};
Point(3) = {4, 0, 0, 1.0};
Point(4) = {4, 1, 0, 1.0};
Point(5) = {0.74401693585629247, 1, 0, 1.0};
Point(6) = {0, 1, 0, 1.0};
Line(1) = {1, 2};
Line(2) = {2, 5};
Line(3) = {5, 6};
Line(4) = {6, 1};
Line(5) = {2, 3};
Line(6) = {3, 4};
Line(7) = {4, 5};
Line Loop(8) = {3, 4, 1, 2};
Line Loop(10) = {7, -2, 5, 6};
Physical Line(12) = {5};
Physical Line(13) = {6};
Physical Line(15) = {3, 7}; // User boundary conditions top
Physical Line(20) = {1};    // User boundary conditions bot	
Physical Line(14) = {4};
Plane Surface(16) = {8};
Plane Surface(17) = {10};
Physical Surface(18) = {16, 17};
Transfinite Line {4, 2, 6} = 31 Using Progression 1;
Transfinite Line {1} = 11 Using Progression 1;
Transfinite Line {3} = 21 Using Progression 1;
Transfinite Line {5, 7} = 101 Using Progression 1;
