-4.994160999999999739e-01 -4.260299999999999851e-03
-4.976657999999999915e-01 -8.428899999999999587e-03
-4.947532000000000041e-01 -1.250109999999999937e-02
-4.906850999999999852e-01 -1.647059999999999844e-02
-4.854708999999999830e-01 -2.033000000000000085e-02
-4.791229000000000182e-01 -2.407060000000000102e-02
-4.716559000000000168e-01 -2.768270000000000106e-02
-4.630872999999999795e-01 -3.115590000000000026e-02
-4.534371999999999847e-01 -3.447920000000000151e-02
-4.427280000000000104e-01 -3.764139999999999847e-02
-4.309848000000000012e-01 -4.063100000000000045e-02
-4.182350999999999708e-01 -4.343709999999999932e-02
-4.045084999999999931e-01 -4.604889999999999678e-02
-3.898371999999999948e-01 -4.845669999999999839e-02
-3.742554000000000158e-01 -5.065130000000000327e-02
-3.577994999999999925e-01 -5.262510000000000104e-02
-3.405078999999999745e-01 -5.437150000000000316e-02
-3.224211000000000160e-01 -5.588560000000000055e-02
-3.035812999999999984e-01 -5.716399999999999954e-02
-2.840323999999999627e-01 -5.820480000000000098e-02
-2.638201000000000018e-01 -5.900810000000000083e-02
-2.429916999999999772e-01 -5.957550000000000345e-02
-2.215958000000000094e-01 -5.991019999999999679e-02
-1.996822999999999793e-01 -6.001719999999999972e-02
-1.773024000000000266e-01 -5.990279999999999910e-02
-1.545084999999999931e-01 -5.957470000000000127e-02
-1.313537000000000177e-01 -5.904190000000000133e-02
-1.078920999999999908e-01 -5.831449999999999828e-02
-8.417849999999998944e-02 -5.740329999999999738e-02
-6.026829999999999687e-02 -5.632000000000000201e-02
-3.621740000000001070e-02 -5.507689999999999808e-02
-1.208189999999997877e-02 -5.368660000000000099e-02
1.208189999999997877e-02 -5.216200000000000003e-02
3.621739999999995518e-02 -5.051610000000000128e-02
6.026830000000005239e-02 -4.876189999999999691e-02
8.417859999999999232e-02 -4.691239999999999993e-02
1.078921000000000463e-01 -4.498019999999999796e-02
1.313537000000000177e-01 -4.297779999999999656e-02
1.545085000000000486e-01 -4.091739999999999960e-02
1.773025000000000295e-01 -3.881090000000000234e-02
1.996822999999999793e-01 -3.667000000000000121e-02
2.215958000000000094e-01 -3.450580000000000314e-02
2.429917000000000327e-01 -3.232940000000000119e-02
2.638201999999999492e-01 -3.015150000000000122e-02
2.840323999999999627e-01 -2.798279999999999865e-02
3.035813000000000539e-01 -2.583370000000000111e-02
3.224211000000000160e-01 -2.371420000000000125e-02
3.405078999999999745e-01 -2.163469999999999976e-02
3.577995000000000481e-01 -1.960510000000000030e-02
3.742554000000000158e-01 -1.763529999999999959e-02
3.898371999999999948e-01 -1.573509999999999839e-02
4.045085000000000486e-01 -1.391429999999999924e-02
4.182350999999999708e-01 -1.218230000000000007e-02
4.309849000000000041e-01 -1.054850000000000058e-02
4.427280000000000104e-01 -9.021700000000000552e-03
4.534371999999999847e-01 -7.610800000000000030e-03
4.630872999999999795e-01 -6.323800000000000081e-03
4.716559000000000168e-01 -5.168500000000000351e-03
4.791229000000000182e-01 -4.151900000000000035e-03
4.854709000000000385e-01 -3.280400000000000156e-03
4.906850000000000378e-01 -2.559500000000000143e-03
4.947532000000000041e-01 -1.993799999999999999e-03
4.976658000000000470e-01 -1.587000000000000086e-03
4.994161000000000294e-01 -1.341900000000000037e-03
5.000000000000000000e-01 -1.260000000000000052e-03
5.000000000000000000e-01 1.260000000000000052e-03
4.994161000000000294e-01 1.341900000000000037e-03
4.976658000000000470e-01 1.587000000000000086e-03
4.947532000000000041e-01 1.993799999999999999e-03
4.906850000000000378e-01 2.559500000000000143e-03
4.854709000000000385e-01 3.280400000000000156e-03
4.791229000000000182e-01 4.151900000000000035e-03
4.716559000000000168e-01 5.168500000000000351e-03
4.630872999999999795e-01 6.323800000000000081e-03
4.534371999999999847e-01 7.610800000000000030e-03
4.427280000000000104e-01 9.021700000000000552e-03
4.309849000000000041e-01 1.054850000000000058e-02
4.182350999999999708e-01 1.218230000000000007e-02
4.045085000000000486e-01 1.391429999999999924e-02
3.898371999999999948e-01 1.573509999999999839e-02
3.742554000000000158e-01 1.763529999999999959e-02
3.577995000000000481e-01 1.960510000000000030e-02
3.405078999999999745e-01 2.163469999999999976e-02
3.224211000000000160e-01 2.371420000000000125e-02
3.035813000000000539e-01 2.583370000000000111e-02
2.840323999999999627e-01 2.798279999999999865e-02
2.638201999999999492e-01 3.015150000000000122e-02
2.429917000000000327e-01 3.232940000000000119e-02
2.215958000000000094e-01 3.450580000000000314e-02
1.996822999999999793e-01 3.667000000000000121e-02
1.773025000000000295e-01 3.881090000000000234e-02
1.545085000000000486e-01 4.091739999999999960e-02
1.313537000000000177e-01 4.297779999999999656e-02
1.078921000000000463e-01 4.498019999999999796e-02
8.417859999999999232e-02 4.691239999999999993e-02
6.026830000000005239e-02 4.876189999999999691e-02
3.621739999999995518e-02 5.051610000000000128e-02
1.208189999999997877e-02 5.216200000000000003e-02
-1.208189999999997877e-02 5.368660000000000099e-02
-3.621740000000001070e-02 5.507689999999999808e-02
-6.026829999999999687e-02 5.632000000000000201e-02
-8.417849999999998944e-02 5.740329999999999738e-02
-1.078920999999999908e-01 5.831449999999999828e-02
-1.313537000000000177e-01 5.904190000000000133e-02
-1.545084999999999931e-01 5.957470000000000127e-02
-1.773024000000000266e-01 5.990279999999999910e-02
-1.996822999999999793e-01 6.001719999999999972e-02
-2.215958000000000094e-01 5.991019999999999679e-02
-2.429916999999999772e-01 5.957550000000000345e-02
-2.638201000000000018e-01 5.900810000000000083e-02
-2.840323999999999627e-01 5.820480000000000098e-02
-3.035812999999999984e-01 5.716399999999999954e-02
-3.224211000000000160e-01 5.588560000000000055e-02
-3.405078999999999745e-01 5.437150000000000316e-02
-3.577994999999999925e-01 5.262510000000000104e-02
-3.742554000000000158e-01 5.065130000000000327e-02
-3.898371999999999948e-01 4.845669999999999839e-02
-4.045084999999999931e-01 4.604889999999999678e-02
-4.182350999999999708e-01 4.343709999999999932e-02
-4.309848000000000012e-01 4.063100000000000045e-02
-4.427280000000000104e-01 3.764139999999999847e-02
-4.534371999999999847e-01 3.447920000000000151e-02
-4.630872999999999795e-01 3.115590000000000026e-02
-4.716559000000000168e-01 2.768270000000000106e-02
-4.791229000000000182e-01 2.407060000000000102e-02
-4.854708999999999830e-01 2.033000000000000085e-02
-4.906850999999999852e-01 1.647059999999999844e-02
-4.947532000000000041e-01 1.250109999999999937e-02
-4.976657999999999915e-01 8.428899999999999587e-03
-4.994160999999999739e-01 4.260299999999999851e-03
-5.000000000000000000e-01 0.000000000000000000e+00
