Point(1) = {-0.5, -0.5, 0, 1.0};
Point(2) = {0.5, -0.5, 0, 1.0};
Point(3) = {0.5, 0.5, 0, 1.0};
Point(4) = {-0.5, 0.5, 0, 1.0};
Line(1) = {1, 2};
Line(2) = {2, 3};
Line(3) = {3, 4};
Line(4) = {4, 1};
Line Loop(5) = {3, 4, 1, 2};
Plane Surface(6) = {5};
Physical Line(7) = {4, 1, 2, 3};
Physical Surface(8) = {6};
